[{"feed": ["http://ryuuu.wordpress.com/feed/"], "url": ["https://ryuuu.wordpress.com"], "description": ["uus linn, uued lood"], "title": ["[pa\u0281i]"]},
{"feed": ["http://alternativefreesha.blogspot.com/feeds/posts/default"], "url": ["http://alternativefreesha.blogspot.com"], "description": ["cycling trivialities"], "title": ["[reminiscence of the red rocking horse]"]},
{"feed": ["http://sitsiiliareisikiri2008.blogspot.com/feeds/posts/default"], "url": ["http://sitsiiliareisikiri2008.blogspot.com"], "description": ["..."], "title": ["[Sitsiilia reisikiri 2008]"]},
{"feed": ["http://tupsuke.blogspot.com/feeds/posts/default"], "url": ["http://tupsuke.blogspot.com"], "description": ["..."], "title": ["[tupsuke]"]},
{"feed": ["http://liiiiiisi.blogspot.com/feeds/posts/default"], "url": ["http://liiiiiisi.blogspot.com"], "description": ["..."], "title": ["^.^"]},
{"feed": ["http://jyri.tahvel.info/?feed=rss"], "url": ["http://jyri.tahvel.info"], "description": ["tales of the inexpressible"], "title": ["_kid.digital"]},
{"feed": ["http://tonkafilm.wordpress.com/feed/"], "url": ["https://tonkafilm.wordpress.com"], "description": ["Et ikka k\u00f5ik oleks 5 korda \u00e4ra siristatud!"], "title": ["__Tonka Filmiblog_"]},
{"feed": ["http://toehunter.blogspot.com/feeds/posts/default"], "url": ["http://toehunter.blogspot.com"], "description": ["Kas filmilindiga saaks sissel\u00f5iget teha, nagu seda saab teha paberiga? Kas filmilindiga sissel\u00f5ike tegemist v\u00f5iks kutsuda filmcut?"], "title": ["|*'''| Varvastevahele t\u00f6rts filmi!"]},
{"feed": ["http://ikkajuhtub.blogspot.com/feeds/posts/default"], "url": ["http://ikkajuhtub.blogspot.com"], "description": ["|Kirjeldus - no ei tea kohe \u00fcldse mis siia kirjutada tuleb!|"], "title": ["|ajupesu|"]},
{"feed": ["http://surnd.org/feed/"], "url": ["http://fffu.ee/~jevgeni"], "description": ["all these moments will be lost in time, like tears in rain. time to die."], "title": ["~jevgeni"]},
{"feed": ["http://neeger.blogspot.com/feeds/posts/default"], "url": ["http://neeger.blogspot.com"], "description": ["..."], "title": ["\u00a0"]},
{"feed": ["http://artishok.blogspot.com/feeds/posts/default"], "url": ["http://artishok.blogspot.com"], "description": ["Artishok on eksperiment, mis uurib kapitaliringlusest ja riiklikest institutsioonidest s\u00f5ltumatu kunstikriitika v\u00f5imalikkust. Kunstikriitika kunstikriitika p\u00e4rast. Vt. ka noorus kohustab. /// K\u00f5ik, kes soovivad teha kaast\u00f6\u00f6d, edastada infot v\u00f5i avaldada a"], "title": ["\u00a0ARTISHOK"]},
{"feed": ["http://isikukaitsevahendid.blogspot.com/feeds/posts/default"], "url": ["http://isikukaitsevahendid.blogspot.com"], "description": ["\u00a0Siin blogis kajastme arvamusi ja eelistusi ergonoomikast ja t\u00f6\u00f6tajate kaitsevahenditest.<br><br>\n\u00a0N\u00f5uanded isikukaitsevahendite paremaks kasutamiseks."], "title": ["\u00a0Isikukaitsevahendid \u00a0Parem.Com"]},
{"feed": ["http://peepvain.ee/feed/"], "url": ["http://www.peepvain.ee"], "description": ["Teadvelolek ja tulemuslikkus"], "title": ["\u00a0Peep Vain"]},
{"feed": ["http://arhiiv.blogspot.com/feeds/posts/default"], "url": ["http://arhiiv.blogspot.com"], "description": ["Maailmapilt"], "title": ["\u00a0Rahvusvaheliste Suhete Ring"]},
{"feed": ["http://titetegu.blogspot.com/feeds/posts/default"], "url": ["http://titetegu.blogspot.com"], "description": ["..."], "title": ["\u00b0\u00b0\u00b0  Titetegu  \u00b0\u00b0\u00b0"]},
{"feed": ["http://www.granito.ee/feed/"], "url": ["http://www.granito.ee"], "description": ["..."], "title": ["\u00bb Languages \u00bb Eesti"]},
{"feed": ["http://lifeaccordingtob.com/?feed=rss2"], "url": ["http://lifeaccordingtob.com"], "description": ["Natukene meie igap\u00e4evaelu, natukene beebijuttu ja sekka ka pulmajuttu."], "title": ["\u00bb Languages \u00bb Eesti"]},
{"feed": ["http://banaanne.blogspot.com/feeds/posts/default"], "url": ["http://banaanne.blogspot.com"], "description": ["Vahel grafomaan, vahel niisama... imelik."], "title": ["\u00bfQue pasa?"]},
{"feed": ["http://kaclife.blogspot.com/feeds/posts/default"], "url": ["http://kaclife.blogspot.com"], "description": ["..."], "title": ["\u00d7 existence \u00d7"]},
{"feed": ["http://kopele.blogspot.com/feeds/posts/default"], "url": ["http://kopele.blogspot.com"], "description": ["1,20\u043b\u0432./10\u0431\u0440."], "title": ["\u0410\u043d\u0430\u043b\u0433\u0438\u043d 500\u043c\u0433"]},
{"feed": ["http://vidinsky.blogspot.com/feeds/posts/default"], "url": ["http://vidinsky.blogspot.com"], "description": ["..."], "title": ["\u0432\u0438\u0434\u0438\u043d\u0441\u043a\u0438"]},
{"feed": ["http://www.aviontehnika.com/ru/?format=feed&type=rss"], "url": ["http://www.aviontehnika.com/ru/component/content/?view=featured"], "description": ["..."], "title": ["\u0413\u043b\u0430\u0432\u043d\u0430\u044f"]},
{"feed": ["http://izborishabla.wordpress.com/feed/"], "url": ["http://izborishabla.wordpress.com"], "description": ["\u0428\u0430\u0431\u043b\u0430"], "title": ["\u0414\u0432\u0438\u0436\u0435\u043d\u0438\u0435 \u041d\u0430\u0448\u0438\u044f\u0442 \u0413\u0440\u0430\u0434"]},
{"feed": ["http://mujaga.blogspot.com/feeds/posts/default"], "url": ["http://mujaga.blogspot.com"], "description": ["Metalivend, Gamer, L\u00f5bus T\u00fc\u00fcp."], "title": ["\u0414\u043d\u0435\u0432\u043d\u0438\u043a\u0430 \u043d\u0430 \u0435\u0434\u0438\u043d \u0438\u0434\u0438\u043e\u0442"]},
{"feed": ["https://kredityvestonii.wordpress.com/https://kredityvestonii.wordpress.com/feed/"], "url": ["https://kredityvestonii.wordpress.com"], "description": ["\u041d\u043e\u0432\u043e\u0441\u0442\u0438 \u0438 \u0441\u043e\u0432\u0435\u0442\u044b \u043e \u0431\u044b\u0441\u0442\u0440\u044b\u0445 \u043a\u0440\u0435\u0434\u0438\u0442\u0430\u0445 \u042d\u0441\u0442\u043e\u043d\u0438\u0438"], "title": ["\u041a\u043e\u043c\u043c\u0435\u043d\u0442\u0430\u0440\u0438\u0438:"]},
{"feed": ["http://zepoetslament.blogspot.com/feeds/posts/default"], "url": ["http://zepoetslament.blogspot.com"], "description": ["\u041a\u041e\u041d\u0415\u0426."], "title": ["\u041a\u041e\u041d\u0415\u0426."]},
{"feed": ["http://mileedi.blogspot.com/feeds/posts/default"], "url": ["http://mileedi.blogspot.com"], "description": ["\u00dcHE VETIHAKATISE AJAVEEB."], "title": ["\u041c\u0430\u0433\u0430\u0437\u0438\u043d \u043a\u043e\u0436\u0430\u043d\u043e\u0439 \u043e\u0431\u0443\u0432\u0438 \u0438 \u0430\u043a\u0441\u0435\u0441\u0441\u0443\u0430\u0440\u043e\u0432"]},
{"feed": ["http://fengshuibg.wordpress.com/feed/"], "url": ["http://fengshuibg.wordpress.com"], "description": ["\u0412\u044a\u0437\u0433\u043b\u0435\u0434 \u043d\u0430 \u043a\u043e\u043d\u0441\u0443\u043b\u0442\u0430\u043d\u0442\u0430"], "title": ["\u0424\u044a\u043d \u0428\u0443\u0439 \u0432 \u0411\u044a\u043b\u0433\u0430\u0440\u0438\u044f"]},
{"feed": ["http://mishunina.blogspot.com/feeds/posts/default"], "url": ["http://mishunina.blogspot.com"], "description": ["Ilu on maailmas olemas selleks, et seda vaadata. ~Mihkel"], "title": ["\u0445\u0430\u0439"]},
{"feed": ["http://hagdala.com/feed/"], "url": ["http://hagdala.com"], "description": ["\u05db\u05dc \u05de\u05d4 \u05e9\u05e6\u05e8\u05d9\u05da \u05dc\u05d3\u05e2\u05ea \u05e2\u05dc \u05d4\u05d2\u05d3\u05dc\u05ea \u05d7\u05d6\u05d4"], "title": ["\u05d4\u05d2\u05d3\u05dc\u05ea \u05d7\u05d6\u05d4"]},
{"feed": ["http://xn----1hclcsacudhebhb5j.com/\u05e1\u05d5\u05d2/%d7%94%d7%95%d7%91%d7%9c%d7%95%d7%aa-%d7%91%d7%aa%d7%9c-%d7%90%d7%91%d7%99%d7%91/feed/"], "url": ["http://xn----1hclcsacudhebhb5j.com"], "description": ["..."], "title": ["\u05d4\u05d5\u05d1\u05dc\u05d5\u05ea \u00bb \u05d4\u05d5\u05d1\u05dc\u05d5\u05ea \u05d1\u05ea\u05dc \u05d0\u05d1\u05d9\u05d1"]},
{"feed": ["http://xn----0hcniic9b4a1d.com/feed/"], "url": ["http://xn----0hcniic9b4a1d.com"], "description": ["\u05db\u05dc \u05de\u05d4 \u05e9\u05e6\u05e8\u05d9\u05da \u05dc\u05d3\u05e2\u05ea \u05e2\u05dc \u05e0\u05d9\u05ea\u05d5\u05d7\u05d9 \u05d0\u05e3"], "title": ["\u05e0\u05d9\u05ea\u05d5\u05d7 \u05d0\u05e3"]},
{"feed": ["http://lawyers-il.co.il/\u05e1\u05d5\u05d2/%d7%a2%d7%95%d7%a8%d7%9a-%d7%93%d7%99%d7%9f-%d7%aa%d7%a2%d7%91%d7%95%d7%a8%d7%94/feed/"], "url": ["http://lawyers-il.co.il"], "description": ["\u05e4\u05d5\u05e8\u05d8\u05dc \u05e2\u05d5\u05e8\u05db\u05d9 \u05d3\u05d9\u05df"], "title": ["\u05ea\u05d2\u05d5\u05d1\u05d5\u05ea \u05dc\u05e4\u05d5\u05e1\u05d8: \"\""]},
{"feed": ["http://www.villa-galilee.com/%d7%90%d7%95%d7%93%d7%95%d7%aa-%d7%94%d7%9e%d7%9c%d7%95%d7%9f/feed/"], "url": ["http://www.villa-galilee.com"], "description": ["\u05de\u05dc\u05d5\u05df \u05d1\u05d5\u05d8\u05d9\u05e7 \u05d1\u05e6\u05e4\u05d5\u05df | \u05e1\u05e4\u05d0 \u05d1\u05e6\u05e4\u05d5\u05df"], "title": ["\u05ea\u05d2\u05d5\u05d1\u05d5\u05ea \u05dc\u05e4\u05d5\u05e1\u05d8: \"\u05d5\u05d9\u05dc\u05d4 \u05d2\u05dc\u05d9\u05dc\u05d9\u05d9 \u2013 \u05de\u05dc\u05d5\u05df \u05d1\u05d5\u05d8\u05d9\u05e7 \u05d1\u05e6\u05e4\u05d5\u05df"]},
{"feed": ["http://www.kamransat.blogfa.com/rss.aspx"], "url": ["http://kamransat.blogfa.com"], "description": ["..."], "title": ["\u0634\u0627\u06cc\u0642 \u0645\u0627\u0647\u0648\u0627\u0631\u0647"]},
{"feed": ["http://aqar-makkh.blogspot.com/feeds/posts/default"], "url": ["http://aqar-makkh.blogspot.com"], "description": ["\u0639\u0642\u0627\u0631\u0627\u062a \u0645\u0643\u0629 \u0627\u0644\u0645\u0643\u0631\u0645\u0629 \u0644\u0639\u0631\u0648\u0636 \u0627\u0644\u0623\u0631\u0627\u0636\u064a  \u0648\u0627\u0644\u0641\u0646\u0627\u062f\u0642  \u0648\u0627\u0644\u0625\u0633\u062a\u062b\u0645\u0627\u0631  \u0641\u064a  \u0645\u0643\u0629 \u0627\u0644\u0645\u0643\u0631\u0645\u0629 \u0646\u0631\u062d\u0628  \u0628\u0627\u0644\u062c\u0645\u064a\u0639"], "title": ["\u0639\u0642\u0627\u0631\u0627\u062a \u0645\u0643\u0629 \u0627\u0644\u0645\u0643\u0631\u0645\u0629"]},
{"feed": ["http://neleblogid.blogspot.com/feeds/posts/default"], "url": ["http://neleblogid.blogspot.com"], "description": ["\"Tee iseenda juurde k\u00e4ib alati oma unistuste kaudu-mitte kunagi aga teiste.\" E. M. Remarque"], "title": ["\u0641\u064a \u0628\u0644\u062f\u064a \u0627\u0644\u0639\u0627\u0644\u0645"]},
{"feed": ["http://6hk.blogspot.com/feeds/posts/default"], "url": ["http://6hk.blogspot.com"], "description": ["high fashion"], "title": ["\u0645\u0640\u0640\u0633\u0640\u0640\u0640\u062a\u0640\u0640\u0631 \u0641\u0640\u0640\u0627\u0634\u0640\u0640\u0644"]},
{"feed": ["http://feeds2.feedburner.com/rss.xml"], "url": ["http://thendral.blogspot.com"], "description": ["\u0b8e\u0ba3\u0bcd\u0ba3\u0b99\u0bcd\u0b95\u0bb3\u0bcd...\u0b9a\u0bc6\u0baf\u0bcd\u0ba4\u0bbf\u0b95\u0bb3\u0bcd..."], "title": ["\u0ba4\u0bc6\u0ba9\u0bcd\u0bb1\u0bb2\u0bcd"]},
{"feed": ["http://kaukaasiapaikeseall.blogspot.com/feeds/posts/default"], "url": ["http://kaukaasiapaikeseall.blogspot.com"], "description": ["Minu veider elu ja seiklused Kaukaasia p\u00e4ikese all Gruusias."], "title": ["\u10db\u10d4 \u10db\u10d8\u10e7\u10d5\u10d0\u10e0\u10e1 \u10d7\u10d1\u10d8\u10da\u10d8\u10e1\u10d8"]},
{"feed": ["http://kokkame.blogspot.com/feeds/posts/default"], "url": ["http://kokkame.blogspot.com"], "description": ["m\u00f5tteid siit ja sealt"], "title": ["\u201cIf a pot is cooking, the friendship will stay war"]},
{"feed": ["http://zummyzumin.blogspot.com/feeds/posts/default"], "url": ["http://zummyzumin.blogspot.com"], "description": ["Ja s\u00fcdames heliseb muusika mida saadavad m\u00f5tted ning tunded."], "title": ["\u201cWords are the voice of the heart\u201d- Conficius"]},
{"feed": ["http://korrektsus.blogspot.com/feeds/posts/default"], "url": ["http://korrektsus.blogspot.com"], "description": ["The good, the bad and the Annie."], "title": ["\u2020 BEWARE OF THE UNKNOWN.\u2020"]},
{"feed": ["http://helisen.blogspot.com/feeds/posts/default"], "url": ["http://www.helisen.eu"], "description": ["\u274a Helid Hingele \u274a Sounds for Soul \u274a Hel\u00fcq Hengele \u274a"], "title": ["\u2022"]},
{"feed": ["http://xn----0hcnrq0atziek.com/?feed=rss2"], "url": ["http://xn----0hcnrq0atziek.com"], "description": ["\u202b\u05d0\u05ea\u05e8 \u05d7\u05d3\u05e9 \u05d1\u05d5\u05d5\u05e8\u05d3\u05e4\u05e8\u05e1 \u05d1\u05e2\u05d1\u05e8\u05d9\u05ea\u202c"], "title": ["\u202b\u05de\u05e1\u05d7\u05e8 \u05d1\u05e4\u05d5\u05e8\u05e7\u05e1 - \u05de\u05e1\u05d7\u05e8 \u05d1\u05de\u05d8\"\u05d7\u202c"]},
{"feed": ["http://vaatevinkel.blogspot.com/feeds/posts/default"], "url": ["http://vaatevinkel.blogspot.com"], "description": ["\u00d5pingutest, spordist, elust ja m\u00f5ttemaailmast."], "title": ["\u221e"]},
{"feed": ["http://blog.djcream.org/?feed=rss2"], "url": ["http://amrek.net"], "description": [":: mrx :: mrx :: mrx :: mrx :: mrx :: mrx :: mrx :: mrx ::"], "title": ["\u2603"]},
{"feed": ["http://50mileview.blogspot.com/feeds/posts/default"], "url": ["http://50mileview.blogspot.com"], "description": ["A line is a dot that went for a walk."], "title": ["\u263c"]},
{"feed": ["http://mariabobkowsky.wordpress.com/feed/"], "url": ["https://mariabobkowsky.wordpress.com"], "description": ["..."], "title": ["\u265a MARIA BOBKOWSKY \u265a"]},
{"feed": ["http://miraakel.blogspot.com/feeds/posts/default"], "url": ["http://miraakel.blogspot.com"], "description": [": : : Meelis Kubo : : :\ntaivaanrannanmaalari\n<a href=\"http://www.miraakel.com\">www.miraakel.com</a>"], "title": ["\u2663miraakel\u2663"]},
{"feed": ["http://m8lakas.blogspot.com/feeds/posts/default"], "url": ["http://m8lakas.blogspot.com"], "description": ["don't get me wrong, I am not complaining."], "title": ["\u2665 christella's"]},
{"feed": ["http://merjublogi.blogspot.com/feeds/posts/default"], "url": ["http://merjublogi.blogspot.com"], "description": ["..."], "title": ["\u2665 Merje/Merju Blog \u2665"]},
{"feed": ["http://sylphidine.blogspot.com/feeds/posts/default"], "url": ["http://sylphidine.blogspot.com"], "description": ["|       silk sheets and the blues of the sky |"], "title": ["\u2666 \u2660 \u2663 \u2665"]},
{"feed": ["http://gerliiblogib.blogspot.com/feeds/posts/default"], "url": ["http://gerliiblogib.blogspot.com"], "description": ["Mida mina n\u00e4en, kuulen, m\u00f5tlen ehk maailm minu moodi"], "title": ["\u273f"]},
{"feed": ["http://astelpaju.blogspot.com/feeds/posts/default"], "url": ["http://astelpaju.blogspot.com"], "description": ["..."], "title": ["\u2764"]},
{"feed": ["http://potikunn.blogspot.com/feeds/posts/default"], "url": ["http://potikunn.blogspot.com"], "description": ["..."], "title": ["\u3076\u308d\u3050\u3060\u3088\uff5e\uff0a"]},
{"feed": ["http://columbiahl.com/contact-us/feed/"], "url": ["http://columbiahl.com"], "description": ["\u4eba\u59bb\u3084\u719f\u5973\u3068\u30e9\u30a4\u30d6\u30c1\u30e3\u30c3\u30c8\u304c\u3067\u304d\u308b\u30b5\u30a4\u30c8"], "title": ["\u3078\u306e\u30b3\u30e1\u30f3\u30c8"]},
{"feed": ["http://sparesortsinny.com/feed"], "url": ["http://sparesortsinny.com"], "description": ["\u5927\u604b\u611b\u3092\u7d4c\u305f\u5f7c\u5973\u306e\u8a71\u3092\u6de1\u3005\u3068\u66f8\u3044\u3066\u3044\u304d\u307e\u3059\u3002"], "title": ["\u5927\u604b\u611b\u306b\u3057\u304c\u307f\u3064\u3044\u3066\u3044\u308b\u5f7c\u5973\u306e\u4eca\u5f8c"]},
{"feed": ["http://lillhernes.wordpress.com/feed/"], "url": ["http://lillhernes.wordpress.com"], "description": ["elu on hernes: saab hoo sisse ja muudkui veereb..."], "title": ["\u6614\u8a71 [muinaslood] \u6614\u8a71"]},
{"feed": ["http://ramloff.blogspot.com/feeds/posts/default"], "url": ["http://ramloff.blogspot.com"], "description": ["\u6e05\u808c\u6676 \u30af\u30ec\u30f3\u30b8\u30f3\u30b0\u30aa\u30a4\u30eb\u306b\u95a2\u3059\u308b\u60c5\u5831\u3084\u3001\u6fc0\u5b89\u901a\u8ca9\u60c5\u5831\u306a\u3069\u3092\u7d39\u4ecb\u3057\u3066\u3044\u307e\u3059\u3002"], "title": ["\u6e05\u808c\u6676 \u30af\u30ec\u30f3\u30b8\u30f3\u30b0\u30aa\u30a4\u30eb\u6fc0\u5b89\u901a\u8ca9\u30ac\u30a4\u30c9"]}]